<svg xmlns="http://www.w3.org/2000/svg" width="20" height="20" viewBox="0 0 20 20">
    <g data-name="facebook">
        <path data-name="패스 5842" d="M16 8a8 8 0 1 0-9.25 7.9v-5.59H4.719V8H6.75V6.238a2.823 2.823 0 0 1 3.022-3.113 12.3 12.3 0 0 1 1.791.156V5.25h-1.009A1.156 1.156 0 0 0 9.25 6.5V8h2.219l-.355 2.313H9.25V15.9A8 8 0 0 0 16 8z" style="fill:#9f9f9f" transform="translate(2 2)"/>
    </g>
</svg>
