<svg xmlns="http://www.w3.org/2000/svg" width="20" height="20" viewBox="0 0 20 20">
    <defs>
        <style>
            .cls-1{fill:#9f9f9f}
        </style>
    </defs>
    <g id="instagram" transform="translate(-145 -582)">
        <g id="instagram-2" data-name="instagram" transform="translate(147 584)">
            <path id="패스_1432" data-name="패스 1432" class="cls-1" d="M327.616 194.9h-6.141a4.93 4.93 0 0 0-4.93 4.93v6.14a4.929 4.929 0 0 0 4.93 4.929h6.141a4.929 4.929 0 0 0 4.93-4.929v-6.14a4.93 4.93 0 0 0-4.93-4.93zm3.394 10.481a3.983 3.983 0 0 1-3.983 3.983h-4.962a3.983 3.983 0 0 1-3.984-3.983v-4.962a3.984 3.984 0 0 1 3.984-3.983h4.962a3.984 3.984 0 0 1 3.983 3.983z" transform="translate(-316.545 -194.905)"/>
            <path id="패스_1433" data-name="패스 1433" class="cls-1" d="M372.523 244.262a4.212 4.212 0 1 0 4.212 4.212 4.212 4.212 0 0 0-4.212-4.212zm0 6.746a2.534 2.534 0 1 1 2.534-2.534 2.534 2.534 0 0 1-2.534 2.534z" transform="translate(-364.308 -240.446)"/>
            <path id="패스_1434" data-name="패스 1434" class="cls-1" d="M461.9 230.6a1.072 1.072 0 1 1-1.073-1.073 1.073 1.073 0 0 1 1.073 1.073z" transform="translate(-448.693 -226.856)"/>
        </g>
    </g>
</svg>
