<svg xmlns="http://www.w3.org/2000/svg" width="24" height="24" viewBox="0 0 24 24">
    <defs>
        <style>
            .cls-2{fill:none;stroke:#fff;stroke-width:1.5px}
        </style>
    </defs>
    <g id="그룹_851" data-name="그룹 851" transform="translate(-323 -569)">
        <g id="그룹_1008" data-name="그룹 1008" transform="translate(-79 404)">
            <path id="패스_2753" data-name="패스 2753" class="cls-2" d="m315.967 23.755 14 14" transform="translate(91.533 146.745)"/>
            <path id="패스_2754" data-name="패스 2754" class="cls-2" d="m315.967 23.755 14 14" transform="rotate(90 295.361 149.894)"/>
        </g>
    </g>
</svg>
